<svg width="87" height="81" viewBox="0 0 87 81" fill="none" xmlns="http://www.w3.org/2000/svg">
<rect width="87" height="80.4846" fill="white"/>
<path fill-rule="evenodd" clip-rule="evenodd" d="M81.5748 57.5904C81.5762 57.5355 81.5769 57.4803 81.5769 57.425C81.5769 53.8619 78.6884 50.9734 75.1253 50.9734C71.5622 50.9734 68.6737 53.8619 68.6737 57.425C68.6737 57.4803 68.6744 57.5355 68.6758 57.5904H81.5748Z" fill="#009F79"/>
<mask id="mask0_1761_113937" style="mask-type:alpha" maskUnits="userSpaceOnUse" x="66" y="50" width="14" height="8">
<path fill-rule="evenodd" clip-rule="evenodd" d="M79.5876 57.5904C79.5889 57.5355 79.5896 57.4804 79.5896 57.4251C79.5896 53.862 76.7012 50.9735 73.1381 50.9735C69.575 50.9735 66.6865 53.862 66.6865 57.4251C66.6865 57.4804 66.6872 57.5355 66.6886 57.5904H79.5876Z" fill="black" fill-opacity="0.25"/>
</mask>
<g mask="url(#mask0_1761_113937)">
<path fill-rule="evenodd" clip-rule="evenodd" d="M81.5727 57.5905C81.5741 57.5355 81.5748 57.4804 81.5748 57.4251C81.5748 53.862 78.6864 50.9735 75.1233 50.9735C71.5602 50.9735 68.6717 53.862 68.6717 57.4251C68.6717 57.4804 68.6724 57.5355 68.6738 57.5905H81.5727Z" fill="black"/>
</g>
<rect x="77.7929" y="38.4192" width="1.0635" height="18.434" fill="#273475"/>
<path d="M71 37.7431C71 34.0284 74.0114 16.2996 77.7261 16.2996C81.4408 16.2996 84.4522 34.0284 84.4522 37.7431C84.4522 41.4578 81.4408 44.4692 77.7261 44.4692C74.0114 44.4692 71 41.4578 71 37.7431Z" fill="#009F79"/>
<mask id="mask1_1761_113937" style="mask-type:alpha" maskUnits="userSpaceOnUse" x="72" y="17" width="13" height="28">
<path d="M72 38.9909C72 35.391 75.4518 17 79.0417 17C82.6315 17 85 35.391 85 38.9909C85 42.5908 82.0899 45 78.5 45C74.9102 45 72 42.5908 72 38.9909Z" fill="black" fill-opacity="0.25"/>
</mask>
<g mask="url(#mask1_1761_113937)">
<path d="M71 37.6571C71 33.9054 73.7853 16.5 77.5 16.5C81.2147 16.5 84.4522 33.9054 84.4522 37.6571C84.4522 41.4088 81.4408 44.4502 77.7261 44.4502C74.0114 44.4502 71 41.4088 71 37.6571Z" fill="black"/>
</g>
<rect x="42.7929" y="33.1196" width="1.0635" height="18.434" fill="#273475"/>
<path d="M36 32.4435C36 28.7288 39.0114 11 42.7261 11C46.4408 11 49.4522 28.7288 49.4522 32.4435C49.4522 36.1582 46.4408 39.1696 42.7261 39.1696C39.0114 39.1696 36 36.1582 36 32.4435Z" fill="#009F79"/>
<mask id="mask2_1761_113937" style="mask-type:alpha" maskUnits="userSpaceOnUse" x="37" y="11" width="13" height="29">
<path d="M37 33.6914C37 30.0915 40.4518 11.7004 44.0417 11.7004C47.6315 11.7004 50 30.0915 50 33.6914C50 37.2912 47.0899 39.7004 43.5 39.7004C39.9102 39.7004 37 37.2912 37 33.6914Z" fill="black" fill-opacity="0.25"/>
</mask>
<g mask="url(#mask2_1761_113937)">
<path d="M36 32.3575C36 28.6058 38.7853 11.2004 42.5 11.2004C46.2147 11.2004 49.4522 28.6058 49.4522 32.3575C49.4522 36.1093 46.4408 39.1506 42.7261 39.1506C39.0114 39.1506 36 36.1093 36 32.3575Z" fill="black"/>
</g>
<rect width="19.852" height="21.979" transform="matrix(-1 0 0 1 80.3091 32.9391)" fill="white"/>
<path d="M66.5003 22.8359H50.3542L40.2509 32.9392H60.4574L66.5003 26.5V22.8359Z" fill="#FED131"/>
<path d="M70.2074 17.4382H67.8376V23.6276H70.2072L70.2074 17.4382Z" fill="#FED131"/>
<path d="M73.9282 20.1772L70.206 17.4382L66.4837 20.1772V26.5582H73.9282V20.1772Z" fill="white"/>
<rect width="20.2065" height="21.979" transform="matrix(-1 0 0 1 60.4573 32.9391)" fill="#273475"/>
<path d="M73.9281 26.5582H66.4836L60.4571 32.9392H80.3091L73.9281 26.5582Z" fill="white"/>
<rect x="65.1541" y="34.0264" width="3.19049" height="4.96299" fill="#273475"/>
<line x1="65.1541" y1="36.3384" x2="68.3446" y2="36.3384" stroke="white" stroke-width="0.33904"/>
<line x1="66.742" y1="34.0264" x2="66.742" y2="38.9894" stroke="white" stroke-width="0.33904"/>
<rect x="73.5867" y="34.0264" width="3.19049" height="4.96299" fill="#273475"/>
<line x1="73.5867" y1="36.3384" x2="76.7772" y2="36.3384" stroke="white" stroke-width="0.33904"/>
<line x1="75.1746" y1="34.0264" x2="75.1746" y2="38.9894" stroke="white" stroke-width="0.33904"/>
<rect x="73.9998" y="42" width="3.19049" height="4.96299" fill="#273475"/>
<line x1="73.9998" y1="44.312" x2="77.1903" y2="44.312" stroke="white" stroke-width="0.33904"/>
<line x1="75.5877" y1="42" x2="75.5877" y2="46.963" stroke="white" stroke-width="0.33904"/>
<rect x="64.9998" y="42" width="3.19049" height="4.96299" fill="#273475"/>
<line x1="64.9998" y1="44.312" x2="68.1903" y2="44.312" stroke="white" stroke-width="0.33904"/>
<line x1="66.5877" y1="42" x2="66.5877" y2="46.963" stroke="white" stroke-width="0.33904"/>
<path d="M66.4824 20.3126H64.0009L64.0008 26.5582H66.4823L66.4824 20.3126Z" fill="#FED131"/>
<path d="M66.4782 20.3127H64.0043L67.8373 17.4382H70.2092L66.4782 20.3127Z" fill="#273475"/>
<rect x="36.656" y="11.1144" width="2.4815" height="6.38099" fill="white"/>
<rect x="29.2109" y="11.1144" width="7.44449" height="6.38099" fill="#273475"/>
<rect x="5.20026" y="23.8765" width="19.852" height="21.979" fill="#273475"/>
<path d="M15.7134 14.1806L35.155 13.7732L45.2583 23.8764H25.0518L15.7134 14.1806Z" fill="#FED131"/>
<rect x="25.052" y="23.8765" width="20.2065" height="21.979" fill="#FEFEFE"/>
<path d="M34.4929 32.9603C34.4929 31.6903 35.5225 30.6607 36.7925 30.6607C38.0625 30.6607 39.092 31.6903 39.092 32.9603V44.4581H34.4929V32.9603Z" fill="#273475"/>
<path d="M19.0261 17.4955H21.6848L25.0526 23.8765L19.0261 17.4955Z" fill="#FED131"/>
<path d="M15.7133 14.1805L25.0522 23.8764H5.20026L15.7133 14.1805Z" fill="#273475"/>
<path fill-rule="evenodd" clip-rule="evenodd" d="M67.438 58.5142C67.4394 58.4592 67.4401 58.4041 67.4401 58.3488C67.4401 54.7857 64.5516 51.8972 60.9885 51.8972C57.4254 51.8972 54.537 54.7857 54.537 58.3488C54.537 58.4041 54.5377 58.4592 54.5391 58.5142H67.438Z" fill="#009F79"/>
<mask id="mask3_1761_113937" style="mask-type:alpha" maskUnits="userSpaceOnUse" x="52" y="51" width="14" height="8">
<path fill-rule="evenodd" clip-rule="evenodd" d="M65.4517 58.5142C65.4531 58.4592 65.4538 58.4041 65.4538 58.3488C65.4538 54.7857 62.5654 51.8972 59.0023 51.8972C55.4392 51.8972 52.5507 54.7857 52.5507 58.3488C52.5507 58.4041 52.5514 58.4592 52.5528 58.5142H65.4517Z" fill="black" fill-opacity="0.25"/>
</mask>
<g mask="url(#mask3_1761_113937)">
<path fill-rule="evenodd" clip-rule="evenodd" d="M67.4368 58.5142C67.4381 58.4593 67.4388 58.4041 67.4388 58.3488C67.4388 54.7857 64.5504 51.8972 60.9873 51.8972C57.4242 51.8972 54.5357 54.7857 54.5357 58.3488C54.5357 58.4041 54.5364 58.4593 54.5378 58.5142H67.4368Z" fill="black"/>
</g>
<path fill-rule="evenodd" clip-rule="evenodd" d="M65.5039 70.994C65.5053 70.939 65.506 70.8839 65.506 70.8286C65.506 67.2655 62.6175 64.377 59.0544 64.377C55.4913 64.377 52.6029 67.2655 52.6029 70.8286C52.6029 70.8839 52.6036 70.939 52.6049 70.994H65.5039Z" fill="#009F79"/>
<mask id="mask4_1761_113937" style="mask-type:alpha" maskUnits="userSpaceOnUse" x="50" y="64" width="14" height="7">
<path fill-rule="evenodd" clip-rule="evenodd" d="M63.5172 70.994C63.5186 70.9391 63.5193 70.8839 63.5193 70.8286C63.5193 67.2655 60.6309 64.3771 57.0678 64.3771C53.5047 64.3771 50.6162 67.2655 50.6162 70.8286C50.6162 70.8839 50.6169 70.9391 50.6183 70.994H63.5172Z" fill="black" fill-opacity="0.25"/>
</mask>
<g mask="url(#mask4_1761_113937)">
<path fill-rule="evenodd" clip-rule="evenodd" d="M65.5015 70.9941C65.5028 70.9391 65.5035 70.884 65.5035 70.8286C65.5035 67.2655 62.6151 64.3771 59.052 64.3771C55.4889 64.3771 52.6004 67.2655 52.6004 70.8286C52.6004 70.884 52.6011 70.9391 52.6025 70.9941H65.5015Z" fill="black"/>
</g>
<path fill-rule="evenodd" clip-rule="evenodd" d="M73.2638 58.5142C73.2652 58.4592 73.2659 58.4041 73.2659 58.3488C73.2659 54.7857 70.3774 51.8973 66.8143 51.8973C63.2512 51.8973 60.3627 54.7857 60.3627 58.3488C60.3627 58.4041 60.3634 58.4592 60.3648 58.5142H73.2638Z" fill="#009F79"/>
<mask id="mask5_1761_113937" style="mask-type:alpha" maskUnits="userSpaceOnUse" x="58" y="51" width="14" height="8">
<path fill-rule="evenodd" clip-rule="evenodd" d="M71.2777 58.5142C71.2791 58.4592 71.2797 58.4041 71.2797 58.3488C71.2797 54.7857 68.3913 51.8972 64.8282 51.8972C61.2651 51.8972 58.3766 54.7857 58.3766 58.3488C58.3766 58.4041 58.3773 58.4592 58.3787 58.5142H71.2777Z" fill="black" fill-opacity="0.25"/>
</mask>
<g mask="url(#mask5_1761_113937)">
<path fill-rule="evenodd" clip-rule="evenodd" d="M73.2628 58.5142C73.2642 58.4592 73.2649 58.4041 73.2649 58.3488C73.2649 54.7857 70.3764 51.8972 66.8133 51.8972C63.2502 51.8972 60.3617 54.7857 60.3617 58.3488C60.3617 58.4041 60.3624 58.4592 60.3638 58.5142H73.2628Z" fill="black"/>
</g>
<path fill-rule="evenodd" clip-rule="evenodd" d="M69.4484 64.8751C69.45 64.8103 69.4509 64.7453 69.4509 64.6801C69.4509 60.4805 66.0464 57.0761 61.8468 57.0761C57.6473 57.0761 54.2428 60.4805 54.2428 64.6801C54.2428 64.7453 54.2437 64.8103 54.2453 64.8751H69.4484Z" fill="#009F79"/>
<mask id="mask6_1761_113937" style="mask-type:alpha" maskUnits="userSpaceOnUse" x="51" y="57" width="17" height="8">
<path fill-rule="evenodd" clip-rule="evenodd" d="M67.1082 64.875C67.1099 64.8102 67.1107 64.7452 67.1107 64.6801C67.1107 60.4805 63.7063 57.076 59.5067 57.076C55.3071 57.076 51.9027 60.4805 51.9027 64.6801C51.9027 64.7452 51.9035 64.8102 51.9051 64.875H67.1082Z" fill="black" fill-opacity="0.25"/>
</mask>
<g mask="url(#mask6_1761_113937)">
<path fill-rule="evenodd" clip-rule="evenodd" d="M69.4481 64.875C69.4498 64.8102 69.4506 64.7452 69.4506 64.6801C69.4506 60.4805 66.0462 57.076 61.8466 57.076C57.647 57.076 54.2426 60.4805 54.2426 64.6801C54.2426 64.7452 54.2434 64.8102 54.245 64.875H69.4481Z" fill="black"/>
</g>
<rect x="20.6567" y="46.5336" width="19.852" height="21.979" fill="#273475"/>
<path d="M34.8365 36.4304H50.6117L60.7149 46.5336H40.5085C38.3626 42.5881 36.9823 40.376 34.8365 36.4304Z" fill="#FED131"/>
<path d="M50.5004 42L44.5004 42.5L42.5004 46.5L50.5004 42Z" fill="#273475"/>
<path d="M50.5004 42L60.6992 47.5H40.5004L50.5004 42Z" fill="white"/>
<rect x="34.4828" y="33.7717" width="2.4815" height="6.38099" fill="#3B5FA9"/>
<rect x="27.0375" y="33.7717" width="7.44449" height="6.38099" fill="#273475"/>
<rect x="40.5084" y="46.5336" width="20.2065" height="21.979" fill="#FEFEFE"/>
<path d="M34.4825 40.1527H37.1412L40.509 46.5337L34.4825 40.1527Z" fill="#FED131"/>
<path d="M27.0376 40.1527H34.4821L40.5086 46.5337H20.6567L27.0376 40.1527Z" fill="#273475"/>
<path d="M40.5048 65.6533H51.3565V70.9961H40.5048V65.6533Z" fill="#273475"/>
<path d="M49.0004 59.3043C49.0004 58.0317 50.0321 57.0001 51.3047 57.0001C52.5773 57.0001 53.6089 58.0317 53.6089 59.3043V66.217H49.0004V59.3043Z" fill="#273475"/>
<rect x="43.6993" y="65.6766" width="14.9227" height="1.0635" fill="#3B5FA9"/>
<rect x="45.7273" y="66.7401" width="14.9227" height="1.0635" fill="#3B5FA9"/>
<rect x="47.7546" y="67.8036" width="14.9227" height="1.0635" fill="#3B5FA9"/>
<rect x="49.3996" y="68.8671" width="14.9227" height="1.0635" fill="#3B5FA9"/>
<rect x="51.0429" y="69.9306" width="14.9227" height="1.0635" fill="#3B5FA9"/>
<rect x="55.0004" y="49" width="3.19049" height="4.96299" fill="#273475"/>
<line x1="55.0005" y1="51.312" x2="58.191" y2="51.312" stroke="white" stroke-width="0.33904"/>
<line x1="56.5884" y1="49" x2="56.5884" y2="53.963" stroke="white" stroke-width="0.33904"/>
<rect x="49.0004" y="49" width="3.19049" height="4.96299" fill="#273475"/>
<line x1="49.0005" y1="51.312" x2="52.191" y2="51.312" stroke="white" stroke-width="0.33904"/>
<line x1="50.5884" y1="49" x2="50.5884" y2="53.963" stroke="white" stroke-width="0.33904"/>
<rect x="42.9252" y="49" width="3.19049" height="4.96299" fill="#273475"/>
<line x1="42.9252" y1="51.312" x2="46.1157" y2="51.312" stroke="white" stroke-width="0.33904"/>
<line x1="44.5131" y1="49" x2="44.5131" y2="53.963" stroke="white" stroke-width="0.33904"/>
<path fill-rule="evenodd" clip-rule="evenodd" d="M82.3269 58.6333C82.3283 58.5784 82.3289 58.5232 82.3289 58.4679C82.3289 54.9048 79.4405 52.0164 75.8774 52.0164C72.3143 52.0164 69.4258 54.9048 69.4258 58.4679C69.4258 58.5232 69.4265 58.5784 69.4279 58.6333H82.3269Z" fill="#009F79"/>
<mask id="mask7_1761_113937" style="mask-type:alpha" maskUnits="userSpaceOnUse" x="67" y="52" width="14" height="7">
<path fill-rule="evenodd" clip-rule="evenodd" d="M80.3402 58.6333C80.3415 58.5784 80.3422 58.5232 80.3422 58.4679C80.3422 54.9048 77.4538 52.0164 73.8907 52.0164C70.3276 52.0164 67.4391 54.9048 67.4391 58.4679C67.4391 58.5232 67.4398 58.5784 67.4412 58.6333H80.3402Z" fill="black" fill-opacity="0.25"/>
</mask>
<g mask="url(#mask7_1761_113937)">
<path fill-rule="evenodd" clip-rule="evenodd" d="M82.3253 58.6334C82.3266 58.5784 82.3273 58.5232 82.3273 58.4679C82.3273 54.9048 79.4389 52.0164 75.8758 52.0164C72.3127 52.0164 69.4242 54.9048 69.4242 58.4679C69.4242 58.5232 69.4249 58.5784 69.4263 58.6334H82.3253Z" fill="black"/>
</g>
<path fill-rule="evenodd" clip-rule="evenodd" d="M16.4208 46.4759C16.4222 46.421 16.4229 46.3658 16.4229 46.3105C16.4229 42.7474 13.5345 39.8589 9.97136 39.8589C6.40827 39.8589 3.51981 42.7474 3.51981 46.3105C3.51981 46.3658 3.5205 46.421 3.52189 46.4759H16.4208Z" fill="#009F79"/>
<mask id="mask8_1761_113937" style="mask-type:alpha" maskUnits="userSpaceOnUse" x="1" y="39" width="14" height="8">
<path fill-rule="evenodd" clip-rule="evenodd" d="M14.4341 46.476C14.4355 46.421 14.4362 46.3659 14.4362 46.3106C14.4362 42.7475 11.5477 39.859 7.98465 39.859C4.42156 39.859 1.5331 42.7475 1.5331 46.3106C1.5331 46.3659 1.53379 46.421 1.53518 46.476H14.4341Z" fill="black" fill-opacity="0.25"/>
</mask>
<g mask="url(#mask8_1761_113937)">
<path fill-rule="evenodd" clip-rule="evenodd" d="M16.4183 46.476C16.4197 46.421 16.4204 46.3659 16.4204 46.3106C16.4204 42.7475 13.532 39.859 9.96886 39.859C6.40576 39.859 3.5173 42.7475 3.5173 46.3106C3.5173 46.3659 3.518 46.421 3.51938 46.476H16.4183Z" fill="black"/>
</g>
<rect x="17.1406" y="52.2054" width="1.0635" height="18.434" fill="#273475"/>
<path d="M10.3477 51.5293C10.3477 47.8146 13.359 30.0858 17.0737 30.0858C20.7885 30.0858 23.7998 47.8146 23.7998 51.5293C23.7998 55.2441 20.7885 58.2554 17.0737 58.2554C13.359 58.2554 10.3477 55.2441 10.3477 51.5293Z" fill="#009F79"/>
<mask id="mask9_1761_113937" style="mask-type:alpha" maskUnits="userSpaceOnUse" x="12" y="27" width="14" height="32">
<path d="M12.4169 51.5293C12.4169 47.8146 15.4283 27.7863 19.143 27.7863C22.8577 27.7863 25.8691 47.8146 25.8691 51.5293C25.8691 55.2441 22.8577 58.2554 19.143 58.2554C15.4283 58.2554 12.4169 55.2441 12.4169 51.5293Z" fill="black" fill-opacity="0.25"/>
</mask>
<g mask="url(#mask9_1761_113937)">
<path d="M10.3472 51.5293C10.3472 47.8146 13.9143 30.0858 17.629 30.0858C21.3437 30.0858 23.7993 47.8146 23.7993 51.5293C23.7993 55.2441 20.788 58.2554 17.0733 58.2554C13.3585 58.2554 10.3472 55.2441 10.3472 51.5293Z" fill="black"/>
</g>
<rect x="19" y="60" width="16" height="5" fill="#273475"/>
<path d="M40.5 53H25.4166L18.9999 60H34.9999L40.5 53Z" fill="#FED131"/>
<path d="M40.5 71V53L35 60V71H40.5Z" fill="white"/>
<path d="M35.9999 64.5C35.9999 63.1193 37.1192 62 38.4999 62C39.8806 62 40.9999 63.1193 40.9999 64.5V70H35.9999V64.5Z" fill="#273475"/>
<circle cx="51.0003" cy="45" r="1" fill="#273475"/>
<rect x="52.6462" y="41.063" width="4.08523" height="2.16277" transform="rotate(25.1243 52.6462 41.063)" fill="#C4C4C4"/>
<rect x="52.6462" y="41.063" width="1.44185" height="2.16277" transform="rotate(25.1243 52.6462 41.063)" fill="#3B5FA9"/>
<rect x="53.9513" y="41.6753" width="1.44185" height="2.16277" transform="rotate(25.1243 53.9513 41.6753)" fill="white"/>
<rect x="55.2564" y="42.2875" width="1.44185" height="2.16277" transform="rotate(25.1243 55.2564 42.2875)" fill="#CE0500"/>
<rect x="52.509" y="41.0064" width="0.240308" height="4.32554" transform="rotate(25.1243 52.509 41.0064)" fill="#273475"/>
<rect width="4.08523" height="2.16277" transform="matrix(-0.905389 0.424583 0.424583 0.905389 48.9158 41.0629)" fill="#C4C4C4"/>
<rect width="1.44185" height="2.16277" transform="matrix(-0.905389 0.424583 0.424583 0.905389 48.9158 41.0629)" fill="#3B5FA9"/>
<rect width="1.44185" height="2.16277" transform="matrix(-0.905389 0.424583 0.424583 0.905389 47.6107 41.6752)" fill="white"/>
<rect width="1.44185" height="2.16277" transform="matrix(-0.905389 0.424583 0.424583 0.905389 46.3056 42.2874)" fill="#CE0500"/>
<rect width="0.240308" height="4.32554" transform="matrix(-0.905389 0.424583 0.424583 0.905389 49.053 41.0064)" fill="#273475"/>
<path fill-rule="evenodd" clip-rule="evenodd" d="M41.5478 71.799C41.5495 71.7342 41.5503 71.6692 41.5503 71.604C41.5503 67.4044 38.1458 64 33.9463 64C29.7467 64 26.3423 67.4044 26.3423 71.604C26.3423 71.6692 26.3431 71.7342 26.3447 71.799H41.5478Z" fill="#009F79"/>
<mask id="mask10_1761_113937" style="mask-type:alpha" maskUnits="userSpaceOnUse" x="24" y="64" width="16" height="8">
<path fill-rule="evenodd" clip-rule="evenodd" d="M39.2056 71.799C39.2072 71.7342 39.208 71.6692 39.208 71.6041C39.208 67.4045 35.8036 64.0001 31.604 64.0001C27.4044 64.0001 24 67.4045 24 71.6041C24 71.6692 24.0008 71.7342 24.0025 71.799H39.2056Z" fill="black" fill-opacity="0.25"/>
</mask>
<g mask="url(#mask10_1761_113937)">
<path fill-rule="evenodd" clip-rule="evenodd" d="M41.5465 71.7991C41.5481 71.7343 41.5489 71.6693 41.5489 71.6041C41.5489 67.4045 38.1445 64.0001 33.9449 64.0001C29.7453 64.0001 26.3409 67.4045 26.3409 71.6041C26.3409 71.6693 26.3417 71.7343 26.3433 71.7991H41.5465Z" fill="black"/>
</g>
<path fill-rule="evenodd" clip-rule="evenodd" d="M21.9501 69.09C21.9516 69.0311 21.9523 68.972 21.9523 68.9127C21.9523 65.0949 18.8574 62 15.0396 62C11.2218 62 8.12685 65.0949 8.12685 68.9127C8.12685 68.972 8.12759 69.0311 8.12907 69.09H21.9501Z" fill="#009F79"/>
<mask id="mask11_1761_113937" style="mask-type:alpha" maskUnits="userSpaceOnUse" x="6" y="62" width="14" height="8">
<path fill-rule="evenodd" clip-rule="evenodd" d="M19.8232 69.09C19.8247 69.0311 19.8255 68.972 19.8255 68.9128C19.8255 65.095 16.7305 62.0001 12.9127 62.0001C9.09494 62.0001 6 65.095 6 68.9128C6 68.972 6.00075 69.0311 6.00223 69.09H19.8232Z" fill="black" fill-opacity="0.25"/>
</mask>
<g mask="url(#mask11_1761_113937)">
<path fill-rule="evenodd" clip-rule="evenodd" d="M21.9501 69.09C21.9516 69.0311 21.9523 68.972 21.9523 68.9127C21.9523 65.0949 18.8574 62 15.0396 62C11.2218 62 8.12685 65.0949 8.12685 68.9127C8.12685 68.972 8.12759 69.0311 8.12907 69.09H21.9501Z" fill="black"/>
</g>
<rect x="8.1264" y="69.09" width="13.8255" height="2.4815" fill="#009F79"/>
<path d="M8.1264 69.09H19.8249V71.7976H8.1264V69.09Z" fill="#00775B"/>
<path fill-rule="evenodd" clip-rule="evenodd" d="M31.5456 71.799C31.5472 71.7342 31.548 71.6692 31.548 71.604C31.548 67.4044 28.1436 64 23.944 64C19.7444 64 16.34 67.4044 16.34 71.604C16.34 71.6692 16.3408 71.7342 16.3425 71.799H31.5456Z" fill="#009F79"/>
<mask id="mask12_1761_113937" style="mask-type:alpha" maskUnits="userSpaceOnUse" x="14" y="64" width="16" height="8">
<path fill-rule="evenodd" clip-rule="evenodd" d="M29.2056 71.799C29.2072 71.7342 29.208 71.6692 29.208 71.604C29.208 67.4044 25.8036 64 21.604 64C17.4044 64 14 67.4044 14 71.604C14 71.6692 14.0008 71.7342 14.0025 71.799H29.2056Z" fill="black" fill-opacity="0.25"/>
</mask>
<g mask="url(#mask12_1761_113937)">
<path fill-rule="evenodd" clip-rule="evenodd" d="M31.5454 71.799C31.5471 71.7342 31.5479 71.6692 31.5479 71.604C31.5479 67.4044 28.1435 64 23.9439 64C19.7443 64 16.3399 67.4044 16.3399 71.604C16.3399 71.6692 16.3407 71.7342 16.3423 71.799H31.5454Z" fill="black"/>
</g>
</svg>
